3_review_topic_modelling
…
2
1052

3
291

4
335

We can also get the per-topic per-word probabilities, or beta.

topics_pos <- tidy(reviewLDA_pos, matrix = "beta")
topics_pos

## # A tibble: 46,844 x 3
##    topic term           beta
##    <int> <chr>         <dbl>
##  1     1 telefon    0.00295 
##  2     2 telefon    0.00420 
##  3     3 telefon    0.0158  
##  4     4 telefon    0.00322 
##  5     1 abonnement 0.00437 
##  6     2 abonnement 0.00831 
##  7     3 abonnement 0.00199 
##  8     4 abonnement 0.0130  
##  9     1 navn       0.000593
## 10     2 navn       0.000238
## # ... with 46,834 more rows
…
